{
    "key": "group_5be1a241b43d1",
    "title": "_Layout Group: Houses",
    "fields": [
        {
            "key": "field_5be1a241cb3f2",
            "label": "Houses",
            "name": "houses",
            "type": "group",
            "instructions": "",
            "required": 0,
            "conditional_logic": 0,
            "wrapper": {
                "width": "",
                "class": "",
                "id": ""
            },
            "layout": "block",
            "sub_fields": [
                {
                    "key": "field_5be1a241d1d30",
                    "label": "Content",
                    "name": "",
                    "type": "tab",
                    "instructions": "",
                    "required": 0,
                    "conditional_logic": 0,
                    "wrapper": {
                        "width": "",
                        "class": "",
                        "id": ""
                    },
                    "placement": "left",
                    "endpoint": 0
                },
                {
                    "key": "field_5bffd46bf8496",
                    "label": "Areas Label",
                    "name": "areas_label",
                    "type": "text",
                    "instructions": "",
                    "required": 0,
                    "conditional_logic": 0,
                    "wrapper": {
                        "width": "33",
                        "class": "",
                        "id": ""
                    },
                    "default_value": "",
                    "placeholder": "",
                    "prepend": "",
                    "append": "",
                    "maxlength": ""
                },
                {
                    "key": "field_5bffd49ff8497",
                    "label": "Phases Label",
                    "name": "phases_label",
                    "type": "text",
                    "instructions": "",
                    "required": 0,
                    "conditional_logic": 0,
                    "wrapper": {
                        "width": "33",
                        "class": "",
                        "id": ""
                    },
                    "default_value": "",
                    "placeholder": "",
                    "prepend": "",
                    "append": "",
                    "maxlength": ""
                },
                {
                    "key": "field_5bffd4b9f8498",
                    "label": "Types Label",
                    "name": "types_label",
                    "type": "text",
                    "instructions": "",
                    "required": 0,
                    "conditional_logic": 0,
                    "wrapper": {
                        "width": "33",
                        "class": "",
                        "id": ""
                    },
                    "default_value": "",
                    "placeholder": "",
                    "prepend": "",
                    "append": "",
                    "maxlength": ""
                },
                {
                    "key": "field_5be1a241d4fd4",
                    "label": "Read More Text",
                    "name": "read_more_text",
                    "type": "text",
                    "instructions": "",
                    "required": 0,
                    "conditional_logic": 0,
                    "wrapper": {
                        "width": "",
                        "class": "",
                        "id": ""
                    },
                    "default_value": "",
                    "placeholder": "",
                    "prepend": "",
                    "append": "",
                    "maxlength": ""
                },
                {
                    "key": "field_5be1a241dc899",
                    "label": "No Results Message",
                    "name": "no_results_message",
                    "type": "text",
                    "instructions": "",
                    "required": 0,
                    "conditional_logic": 0,
                    "wrapper": {
                        "width": "",
                        "class": "",
                        "id": ""
                    },
                    "default_value": "",
                    "placeholder": "",
                    "prepend": "",
                    "append": "",
                    "maxlength": ""
                },
                {
                    "key": "field_5be1a241e2ce8",
                    "label": "Settings",
                    "name": "",
                    "type": "tab",
                    "instructions": "",
                    "required": 0,
                    "conditional_logic": 0,
                    "wrapper": {
                        "width": "",
                        "class": "",
                        "id": ""
                    },
                    "placement": "left",
                    "endpoint": 0
                },
                {
                    "key": "field_5be1a241e2e09",
                    "label": "Layout ID",
                    "name": "layout_id",
                    "type": "text",
                    "instructions": "",
                    "required": 0,
                    "conditional_logic": 0,
                    "wrapper": {
                        "width": "",
                        "class": "",
                        "id": ""
                    },
                    "default_value": "",
                    "placeholder": "",
                    "prepend": "#",
                    "append": "",
                    "maxlength": ""
                },
                {
                    "key": "field_5be1a241e3217",
                    "label": "Preselected Category",
                    "name": "preselected_category",
                    "type": "taxonomy",
                    "instructions": "",
                    "required": 0,
                    "conditional_logic": 0,
                    "wrapper": {
                        "width": "25",
                        "class": "",
                        "id": ""
                    },
                    "taxonomy": "turb_house_cat",
                    "field_type": "select",
                    "allow_null": 1,
                    "add_term": 0,
                    "save_terms": 0,
                    "load_terms": 0,
                    "return_format": "id",
                    "multiple": 0
                },
                {
                    "key": "field_5bffd6fc568ed",
                    "label": "Preselected Area",
                    "name": "preselected_area",
                    "type": "taxonomy",
                    "instructions": "",
                    "required": 0,
                    "conditional_logic": 0,
                    "wrapper": {
                        "width": "25",
                        "class": "",
                        "id": ""
                    },
                    "taxonomy": "turb_house_area",
                    "field_type": "select",
                    "allow_null": 1,
                    "add_term": 0,
                    "save_terms": 0,
                    "load_terms": 0,
                    "return_format": "id",
                    "multiple": 0
                },
                {
                    "key": "field_5bffd70a568ee",
                    "label": "Preselected Phase",
                    "name": "preselected_phase",
                    "type": "taxonomy",
                    "instructions": "",
                    "required": 0,
                    "conditional_logic": 0,
                    "wrapper": {
                        "width": "25",
                        "class": "",
                        "id": ""
                    },
                    "taxonomy": "turb_house_phase",
                    "field_type": "select",
                    "allow_null": 1,
                    "add_term": 0,
                    "save_terms": 0,
                    "load_terms": 0,
                    "return_format": "id",
                    "multiple": 0
                },
                {
                    "key": "field_5bffd717568ef",
                    "label": "Preselected Type",
                    "name": "preselected_type",
                    "type": "taxonomy",
                    "instructions": "",
                    "required": 0,
                    "conditional_logic": 0,
                    "wrapper": {
                        "width": "25",
                        "class": "",
                        "id": ""
                    },
                    "taxonomy": "turb_house_type",
                    "field_type": "select",
                    "allow_null": 1,
                    "add_term": 0,
                    "save_terms": 0,
                    "load_terms": 0,
                    "return_format": "id",
                    "multiple": 0
                },
                {
                    "key": "field_5be1a241e3334",
                    "label": "Houses Per Page",
                    "name": "houses_per_page",
                    "type": "number",
                    "instructions": "",
                    "required": 0,
                    "conditional_logic": 0,
                    "wrapper": {
                        "width": "50",
                        "class": "",
                        "id": ""
                    },
                    "default_value": 6,
                    "placeholder": "",
                    "prepend": "",
                    "append": "",
                    "min": -1,
                    "max": "",
                    "step": ""
                },
                {
                    "key": "field_5be1a241e4b8c",
                    "label": "Infinity Scroll",
                    "name": "infinity_scroll",
                    "type": "button_group",
                    "instructions": "",
                    "required": 0,
                    "conditional_logic": 0,
                    "wrapper": {
                        "width": "50",
                        "class": "",
                        "id": ""
                    },
                    "choices": {
                        "enabled": "Enabled",
                        "disabled": "Disabled"
                    },
                    "allow_null": 0,
                    "default_value": "enabled",
                    "layout": "horizontal",
                    "return_format": "value"
                }
            ]
        }
    ],
    "location": [
        [
            {
                "param": "post_type",
                "operator": "==",
                "value": "post"
            }
        ]
    ],
    "menu_order": 0,
    "position": "normal",
    "style": "default",
    "label_placement": "top",
    "instruction_placement": "label",
    "hide_on_screen": "",
    "active": 0,
    "description": "",
    "modified": 1543493484
}