{
    "key": "group_5bfebde669692",
    "title": "_Layout Group: Image",
    "fields": [
        {
            "key": "field_5bfebdeef66fc",
            "label": "Image",
            "name": "image",
            "type": "group",
            "instructions": "",
            "required": 0,
            "conditional_logic": 0,
            "wrapper": {
                "width": "",
                "class": "",
                "id": ""
            },
            "layout": "block",
            "sub_fields": [
                {
                    "key": "field_5bfebe94f66fd",
                    "label": "Content",
                    "name": "",
                    "type": "tab",
                    "instructions": "",
                    "required": 0,
                    "conditional_logic": 0,
                    "wrapper": {
                        "width": "",
                        "class": "",
                        "id": ""
                    },
                    "placement": "left",
                    "endpoint": 0
                },
                {
                    "key": "field_5bfebeccf66fe",
                    "label": "Image",
                    "name": "image",
                    "type": "image",
                    "instructions": "",
                    "required": 0,
                    "conditional_logic": 0,
                    "wrapper": {
                        "width": "50",
                        "class": "",
                        "id": ""
                    },
                    "return_format": "array",
                    "preview_size": "medium",
                    "library": "all",
                    "min_width": "",
                    "min_height": "",
                    "min_size": "",
                    "max_width": "",
                    "max_height": "",
                    "max_size": "",
                    "mime_types": ""
                },
                {
                    "key": "field_5bfebf05f6701",
                    "label": "Link",
                    "name": "link",
                    "type": "link",
                    "instructions": "",
                    "required": 0,
                    "conditional_logic": 0,
                    "wrapper": {
                        "width": "50",
                        "class": "",
                        "id": ""
                    },
                    "return_format": "array"
                },
                {
                    "key": "field_5bfebee5f66ff",
                    "label": "Settings",
                    "name": "",
                    "type": "tab",
                    "instructions": "",
                    "required": 0,
                    "conditional_logic": 0,
                    "wrapper": {
                        "width": "",
                        "class": "",
                        "id": ""
                    },
                    "placement": "left",
                    "endpoint": 0
                },
                {
                    "key": "field_5bfebef6f6700",
                    "label": "Layout ID",
                    "name": "layout_id",
                    "type": "text",
                    "instructions": "",
                    "required": 0,
                    "conditional_logic": 0,
                    "wrapper": {
                        "width": "",
                        "class": "",
                        "id": ""
                    },
                    "default_value": "",
                    "placeholder": "",
                    "prepend": "#",
                    "append": "",
                    "maxlength": ""
                },
                {
                    "key": "field_5bfeca90c1379",
                    "label": "Container",
                    "name": "container",
                    "type": "button_group",
                    "instructions": "",
                    "required": 0,
                    "conditional_logic": 0,
                    "wrapper": {
                        "width": "33",
                        "class": "",
                        "id": ""
                    },
                    "choices": {
                        "enabled": "Enabled",
                        "disabled": "Disabled"
                    },
                    "allow_null": 0,
                    "default_value": "enabled",
                    "layout": "horizontal",
                    "return_format": "value"
                },
                {
                    "key": "field_5bfebf1cf6702",
                    "label": "Image Crop",
                    "name": "image_crop",
                    "type": "button_group",
                    "instructions": "",
                    "required": 0,
                    "conditional_logic": 0,
                    "wrapper": {
                        "width": "33",
                        "class": "",
                        "id": ""
                    },
                    "choices": {
                        "enabled": "Enabled",
                        "disabled": "Disabled"
                    },
                    "allow_null": 0,
                    "default_value": "disabled",
                    "layout": "horizontal",
                    "return_format": "value"
                },
                {
                    "key": "field_5bfebf37f6703",
                    "label": "Height",
                    "name": "height",
                    "type": "button_group",
                    "instructions": "",
                    "required": 0,
                    "conditional_logic": [
                        [
                            {
                                "field": "field_5bfebf1cf6702",
                                "operator": "==",
                                "value": "enabled"
                            }
                        ]
                    ],
                    "wrapper": {
                        "width": "33",
                        "class": "",
                        "id": ""
                    },
                    "choices": {
                        "default": "Default",
                        "large": "Large"
                    },
                    "allow_null": 0,
                    "default_value": "default",
                    "layout": "horizontal",
                    "return_format": "value"
                }
            ]
        }
    ],
    "location": [
        [
            {
                "param": "post_type",
                "operator": "==",
                "value": "post"
            }
        ]
    ],
    "menu_order": 0,
    "position": "normal",
    "style": "default",
    "label_placement": "top",
    "instruction_placement": "label",
    "hide_on_screen": "",
    "active": 0,
    "description": "",
    "modified": 1543424707
}